{
  "collection": "banners",
  "configuration": [
    {
      "type": "C",
      "level": "public"
    },
    {
      "type": "R",
      "level": "public"
    },
    {
      "type": "U",
      "level": "public"
    },
    {
      "type": "D",
      "level": "public"
    }
  ],
  "database": "adnet",
  "permissions": [
    {
      "login": "fulfaro",
      "access": [
        {
          "type": "C"
        },
        {
          "type": "R"
        },
        {
          "type": "U"
        },
        {
          "type": "D"
        }
      ]
    },
    {
      "login": "ermiticus",
      "access": [
        {
          "type": "C"
        },
        {
          "type": "R"
        },
        {
          "type": "U"
        },
        {
          "type": "D"
        }
      ]
    }
  ]
}